%YAML 1.1
%TAG !u! tag:unity3d.com,2011:
--- !u!1 &1906762765814857287
GameObject:
  m_ObjectHideFlags: 0
  m_CorrespondingSourceObject: {fileID: 0}
  m_PrefabInstance: {fileID: 0}
  m_PrefabAsset: {fileID: 0}
  serializedVersion: 6
  m_Component:
  - component: {fileID: 4576637334476102753}
  m_Layer: 0
  m_Name: Triple_Shot
  m_TagString: Untagged
  m_Icon: {fileID: 0}
  m_NavMeshLayer: 0
  m_StaticEditorFlags: 0
  m_IsActive: 1
--- !u!4 &4576637334476102753
Transform:
  m_ObjectHideFlags: 0
  m_CorrespondingSourceObject: {fileID: 0}
  m_PrefabInstance: {fileID: 0}
  m_PrefabAsset: {fileID: 0}
  m_GameObject: {fileID: 1906762765814857287}
  m_LocalRotation: {x: 0, y: 0, z: 0, w: 1}
  m_LocalPosition: {x: 0, y: 0, z: 0}
  m_LocalScale: {x: 1, y: 1, z: 1}
  m_Children:
  - {fileID: 7697929408414380998}
  - {fileID: 676932098821948343}
  - {fileID: 5042920365479933114}
  m_Father: {fileID: 0}
  m_RootOrder: 0
  m_LocalEulerAnglesHint: {x: 0, y: 0, z: 0}
--- !u!1001 &368131882926826815
PrefabInstance:
  m_ObjectHideFlags: 0
  serializedVersion: 2
  m_Modification:
    m_TransformParent: {fileID: 4576637334476102753}
    m_Modifications:
    - target: {fileID: 783360702313005643, guid: 5ee538bbcc1da8040af9a08050a28a6e,
        type: 3}
      propertyPath: m_Name
      value: laser
      objectReference: {fileID: 0}
    - target: {fileID: 8056755005594212089, guid: 5ee538bbcc1da8040af9a08050a28a6e,
        type: 3}
      propertyPath: m_LocalPosition.x
      value: 0
      objectReference: {fileID: 0}
    - target: {fileID: 8056755005594212089, guid: 5ee538bbcc1da8040af9a08050a28a6e,
        type: 3}
      propertyPath: m_LocalPosition.y
      value: 1.2
      objectReference: {fileID: 0}
    - target: {fileID: 8056755005594212089, guid: 5ee538bbcc1da8040af9a08050a28a6e,
        type: 3}
      propertyPath: m_LocalPosition.z
      value: 0
      objectReference: {fileID: 0}
    - target: {fileID: 8056755005594212089, guid: 5ee538bbcc1da8040af9a08050a28a6e,
        type: 3}
      propertyPath: m_LocalRotation.x
      value: -0
      objectReference: {fileID: 0}
    - target: {fileID: 8056755005594212089, guid: 5ee538bbcc1da8040af9a08050a28a6e,
        type: 3}
      propertyPath: m_LocalRotation.y
      value: -0
      objectReference: {fileID: 0}
    - target: {fileID: 8056755005594212089, guid: 5ee538bbcc1da8040af9a08050a28a6e,
        type: 3}
      propertyPath: m_LocalRotation.z
      value: -0
      objectReference: {fileID: 0}
    - target: {fileID: 8056755005594212089, guid: 5ee538bbcc1da8040af9a08050a28a6e,
        type: 3}
      propertyPath: m_LocalRotation.w
      value: 1
      objectReference: {fileID: 0}
    - target: {fileID: 8056755005594212089, guid: 5ee538bbcc1da8040af9a08050a28a6e,
        type: 3}
      propertyPath: m_RootOrder
      value: 0
      objectReference: {fileID: 0}
    - target: {fileID: 8056755005594212089, guid: 5ee538bbcc1da8040af9a08050a28a6e,
        type: 3}
      propertyPath: m_LocalEulerAnglesHint.x
      value: 0
      objectReference: {fileID: 0}
    - target: {fileID: 8056755005594212089, guid: 5ee538bbcc1da8040af9a08050a28a6e,
        type: 3}
      propertyPath: m_LocalEulerAnglesHint.y
      value: 0
      objectReference: {fileID: 0}
    - target: {fileID: 8056755005594212089, guid: 5ee538bbcc1da8040af9a08050a28a6e,
        type: 3}
      propertyPath: m_LocalEulerAnglesHint.z
      value: 0
      objectReference: {fileID: 0}
    m_RemovedComponents: []
  m_SourcePrefab: {fileID: 100100000, guid: 5ee538bbcc1da8040af9a08050a28a6e, type: 3}
--- !u!4 &7697929408414380998 stripped
Transform:
  m_CorrespondingSourceObject: {fileID: 8056755005594212089, guid: 5ee538bbcc1da8040af9a08050a28a6e,
    type: 3}
  m_PrefabInstance: {fileID: 368131882926826815}
  m_PrefabAsset: {fileID: 0}
--- !u!1001 &3040873847278051907
PrefabInstance:
  m_ObjectHideFlags: 0
  serializedVersion: 2
  m_Modification:
    m_TransformParent: {fileID: 4576637334476102753}
    m_Modifications:
    - target: {fileID: 783360702313005643, guid: 5ee538bbcc1da8040af9a08050a28a6e,
        type: 3}
      propertyPath: m_Name
      value: laser (2)
      objectReference: {fileID: 0}
    - target: {fileID: 8056755005594212089, guid: 5ee538bbcc1da8040af9a08050a28a6e,
        type: 3}
      propertyPath: m_LocalPosition.x
      value: 0.51
      objectReference: {fileID: 0}
    - target: {fileID: 8056755005594212089, guid: 5ee538bbcc1da8040af9a08050a28a6e,
        type: 3}
      propertyPath: m_LocalPosition.y
      value: 0.04
      objectReference: {fileID: 0}
    - target: {fileID: 8056755005594212089, guid: 5ee538bbcc1da8040af9a08050a28a6e,
        type: 3}
      propertyPath: m_LocalPosition.z
      value: 0
      objectReference: {fileID: 0}
    - target: {fileID: 8056755005594212089, guid: 5ee538bbcc1da8040af9a08050a28a6e,
        type: 3}
      propertyPath: m_LocalRotation.x
      value: -0
      objectReference: {fileID: 0}
    - target: {fileID: 8056755005594212089, guid: 5ee538bbcc1da8040af9a08050a28a6e,
        type: 3}
      propertyPath: m_LocalRotation.y
      value: -0
      objectReference: {fileID: 0}
    - target: {fileID: 8056755005594212089, guid: 5ee538bbcc1da8040af9a08050a28a6e,
        type: 3}
      propertyPath: m_LocalRotation.z
      value: -0
      objectReference: {fileID: 0}
    - target: {fileID: 8056755005594212089, guid: 5ee538bbcc1da8040af9a08050a28a6e,
        type: 3}
      propertyPath: m_LocalRotation.w
      value: 1
      objectReference: {fileID: 0}
    - target: {fileID: 8056755005594212089, guid: 5ee538bbcc1da8040af9a08050a28a6e,
        type: 3}
      propertyPath: m_RootOrder
      value: 2
      objectReference: {fileID: 0}
    - target: {fileID: 8056755005594212089, guid: 5ee538bbcc1da8040af9a08050a28a6e,
        type: 3}
      propertyPath: m_LocalEulerAnglesHint.x
      value: 0
      objectReference: {fileID: 0}
    - target: {fileID: 8056755005594212089, guid: 5ee538bbcc1da8040af9a08050a28a6e,
        type: 3}
      propertyPath: m_LocalEulerAnglesHint.y
      value: 0
      objectReference: {fileID: 0}
    - target: {fileID: 8056755005594212089, guid: 5ee538bbcc1da8040af9a08050a28a6e,
        type: 3}
      propertyPath: m_LocalEulerAnglesHint.z
      value: 0
      objectReference: {fileID: 0}
    m_RemovedComponents: []
  m_SourcePrefab: {fileID: 100100000, guid: 5ee538bbcc1da8040af9a08050a28a6e, type: 3}
--- !u!4 &5042920365479933114 stripped
Transform:
  m_CorrespondingSourceObject: {fileID: 8056755005594212089, guid: 5ee538bbcc1da8040af9a08050a28a6e,
    type: 3}
  m_PrefabInstance: {fileID: 3040873847278051907}
  m_PrefabAsset: {fileID: 0}
--- !u!1001 &7398189151186359630
PrefabInstance:
  m_ObjectHideFlags: 0
  serializedVersion: 2
  m_Modification:
    m_TransformParent: {fileID: 4576637334476102753}
    m_Modifications:
    - target: {fileID: 783360702313005643, guid: 5ee538bbcc1da8040af9a08050a28a6e,
        type: 3}
      propertyPath: m_Name
      value: laser (1)
      objectReference: {fileID: 0}
    - target: {fileID: 8056755005594212089, guid: 5ee538bbcc1da8040af9a08050a28a6e,
        type: 3}
      propertyPath: m_LocalPosition.x
      value: -0.51
      objectReference: {fileID: 0}
    - target: {fileID: 8056755005594212089, guid: 5ee538bbcc1da8040af9a08050a28a6e,
        type: 3}
      propertyPath: m_LocalPosition.y
      value: 0.04
      objectReference: {fileID: 0}
    - target: {fileID: 8056755005594212089, guid: 5ee538bbcc1da8040af9a08050a28a6e,
        type: 3}
      propertyPath: m_LocalPosition.z
      value: 0
      objectReference: {fileID: 0}
    - target: {fileID: 8056755005594212089, guid: 5ee538bbcc1da8040af9a08050a28a6e,
        type: 3}
      propertyPath: m_LocalRotation.x
      value: -0
      objectReference: {fileID: 0}
    - target: {fileID: 8056755005594212089, guid: 5ee538bbcc1da8040af9a08050a28a6e,
        type: 3}
      propertyPath: m_LocalRotation.y
      value: -0
      objectReference: {fileID: 0}
    - target: {fileID: 8056755005594212089, guid: 5ee538bbcc1da8040af9a08050a28a6e,
        type: 3}
      propertyPath: m_LocalRotation.z
      value: -0
      objectReference: {fileID: 0}
    - target: {fileID: 8056755005594212089, guid: 5ee538bbcc1da8040af9a08050a28a6e,
        type: 3}
      propertyPath: m_LocalRotation.w
      value: 1
      objectReference: {fileID: 0}
    - target: {fileID: 8056755005594212089, guid: 5ee538bbcc1da8040af9a08050a28a6e,
        type: 3}
      propertyPath: m_RootOrder
      value: 1
      objectReference: {fileID: 0}
    - target: {fileID: 8056755005594212089, guid: 5ee538bbcc1da8040af9a08050a28a6e,
        type: 3}
      propertyPath: m_LocalEulerAnglesHint.x
      value: 0
      objectReference: {fileID: 0}
    - target: {fileID: 8056755005594212089, guid: 5ee538bbcc1da8040af9a08050a28a6e,
        type: 3}
      propertyPath: m_LocalEulerAnglesHint.y
      value: 0
      objectReference: {fileID: 0}
    - target: {fileID: 8056755005594212089, guid: 5ee538bbcc1da8040af9a08050a28a6e,
        type: 3}
      propertyPath: m_LocalEulerAnglesHint.z
      value: 0
      objectReference: {fileID: 0}
    m_RemovedComponents: []
  m_SourcePrefab: {fileID: 100100000, guid: 5ee538bbcc1da8040af9a08050a28a6e, type: 3}
--- !u!4 &676932098821948343 stripped
Transform:
  m_CorrespondingSourceObject: {fileID: 8056755005594212089, guid: 5ee538bbcc1da8040af9a08050a28a6e,
    type: 3}
  m_PrefabInstance: {fileID: 7398189151186359630}
  m_PrefabAsset: {fileID: 0}
